<?xml version="1.0" encoding="UTF-8" standalone="no"?>
<svg width="166px" height="43px" viewBox="0 0 166 43" version="1.1" xmlns="http://www.w3.org/2000/svg" xmlns:xlink="http://www.w3.org/1999/xlink" xmlns:sketch="http://www.bohemiancoding.com/sketch/ns">
    <!-- Generator: Sketch 3.3.2 (12043) - http://www.bohemiancoding.com/sketch -->
    <title>Imported Layers</title>
    <desc>Created with Sketch.</desc>
    <defs></defs>
    <g id="Flaticon-Landing" stroke="none" stroke-width="1" fill="none" fill-rule="evenodd" sketch:type="MSPage">
        <g id="Apps---Plugin" sketch:type="MSArtboardGroup" transform="translate(-79.000000, -3477.000000)" fill="#FFFFFF">
            <g id="Group" sketch:type="MSLayerGroup" transform="translate(-19.000000, 60.000000)">
                <g transform="translate(19.000000, 3369.000000)" id="Group-Copy-7" sketch:type="MSShapeGroup">
                    <g transform="translate(79.000000, 48.000000)">
                        <g id="Imported-Layers">
                            <path d="M32.6389038,27.5530562 C31.7458075,27.7825687 29.4727178,28.550925 25.2449984,29.0405875 C23.2903687,29.2701 19.1438891,29.554975 14.5102414,29.0405875 C11.8935073,28.7245375 8.23419576,27.869375 8.23419576,27.869375 C8.23419576,27.869375 8.75250571,31.1849437 11.6002316,34.3209875 C14.4227732,37.3761375 17.3576966,37.8596187 17.3576966,37.8596187 C17.3576966,37.8596187 25.1575302,40.4315562 34.5369364,36.4341687 C37.2722806,35.06435 39.657752,33.0627 40.8378956,31.296475 C43.8852007,26.8406 43.223367,22.7875812 43.223367,22.7875812 C43.223367,22.7875812 38.0218532,26.3012187 32.6389038,27.5530562" id="Fill-1"></path>
                            <path d="M18.825429,28.4705687 C26.1066819,28.2722312 29.7911778,27.6398625 33.5880555,26.4995562 C39.2271811,24.8448625 43.1738108,21.9877812 43.1738108,21.9877812 C43.1738108,21.9877812 40.5259347,16.1620875 39.4895856,14.9599687 C38.4529657,13.7575812 35.1432561,8.04986875 28.3239869,7.21943125 C26.6006199,7.02109375 17.4145644,7.36186875 11.9189625,12.4192062 C11.3695106,12.9335937 8.57811093,15.3630937 7.66010114,19.8748687 C6.96685481,23.3578687 8.12235563,27.3302625 8.12235563,27.3302625 C8.12235563,27.3302625 14.2229233,28.5818312 18.825429,28.4705687 L18.825429,28.4705687 Z M33.7629918,12.7349875 C35.7176215,12.6234562 37.3600196,14.0489062 37.4724013,15.96375 C37.584783,17.9035875 36.0924078,19.5644625 34.1938336,19.7071687 C32.2392039,19.8187 30.5968059,18.39325 30.4844241,16.4534125 C30.3720424,14.513575 31.8332757,12.8465187 33.7629918,12.7349875 L33.7629918,12.7349875 Z M12.4681436,18.4429687 C12.2682936,15.418725 14.6288515,12.7599812 17.7075693,12.5863687 C20.7862871,12.3880312 23.4653051,14.6686437 23.665155,17.7549687 C23.8650049,20.8103875 21.504447,23.4379562 18.4257292,23.6115687 C15.3470114,23.8163562 12.6679935,21.4983875 12.4681436,18.4429687 L12.4681436,18.4429687 Z" id="Fill-2"></path>
                            <path d="M9.90800653,13.7884875 L8.58406852,12.7906187 C8.58406852,12.7906187 6.74182055,13.9062 5.24321697,16.3047937 C4.89957259,15.9328437 4.83728874,15.306925 4.49391517,14.8793437 C4.08798695,14.3649562 4.03166069,14.6810062 3.1136509,14.6810062 C2.7388646,14.6810062 2.50787276,14.5942 2.3643491,14.5073937 C2.53928548,14.2778812 2.62025449,14.0239125 2.59534095,13.7078625 C2.50787276,13.0198625 1.93350734,12.505475 1.21534747,12.53665 C0.522101142,12.6234562 -0.0522642741,13.193475 0.00379119086,13.8505687 C0.0912593801,14.5385687 0.665624796,15.0529562 1.38378467,15.0217812 C1.47125285,15.0217812 1.55872104,14.990875 1.67110277,14.96615 C1.81489723,15.1953937 2.10194454,15.4805375 2.67658075,15.5114437 C3.62573246,15.54235 3.62573246,15.0838625 4.00051876,15.939025 C4.2317814,16.3666062 4.54997064,16.7694625 4.77500489,17.0237 C3.6509168,19.3354875 3.79444046,21.9383312 3.79444046,21.9383312 L6.84174551,22.9980125 C6.84174551,22.9980125 6.75427732,20.40135 7.27258728,18.2569937 C7.86590865,16.1620875 9.90800653,13.7884875 9.90800653,13.7884875" id="Fill-3"></path>
                            <path d="M22.8532985,7.02109375 C25.7570799,6.5935125 29.3852496,6.82275625 29.3852496,6.82275625 L29.6725677,5.4223 C29.6725677,5.4223 27.717938,4.5359625 24.4645546,4.765475 L24.1772365,3.99685 C25.157801,3.7985125 25.87569,2.8815375 25.7884927,1.914575 C25.7010245,0.8299 24.7830147,-0.0252625 23.6277847,0.0553625 C22.5348385,0.14216875 21.673155,1.11504375 21.6983393,2.19971875 C21.7546656,3.11078125 22.4476411,3.88531875 23.3407374,4.028025 L23.6591974,4.8584625 C22.9973638,4.94526875 22.2792039,5.0568 21.5299021,5.26131875 C19.3691941,5.77570625 18.0203426,6.9160125 18.0203426,6.9160125 L18.6510343,8.3414625 C18.6569918,8.33474375 19.9495171,7.44840625 22.8532985,7.02109375" id="Fill-4"></path>
                            <path d="M44.984646,7.78945 C44.2913997,7.82035625 43.7170343,8.41536875 43.7730897,9.10336875 C43.7730897,9.2149 43.829416,9.33288125 43.8605579,9.4444125 C43.2547798,9.98970625 43.5420979,10.931675 43.5732398,11.4710562 C43.6043817,12.0413437 43.0549299,12.1590562 42.5929462,12.3262187 C42.5929462,12.3262187 42.5929462,12.3262187 42.5929462,12.2953125 C41.0380163,10.039425 38.5650767,8.8370375 38.5650767,8.8370375 L36.8102969,10.9195812 C36.8102969,10.9195812 38.6525449,12.7169812 39.9762121,14.4582125 C41.3564763,16.1997125 42.2493018,18.3687937 42.2493018,18.3687937 L45.1842251,16.5713937 C45.1842251,16.5713937 44.4100098,15.0035062 43.1673116,13.0883937 C43.8854715,12.74735 44.3163132,12.4315687 44.2913997,11.718575 C44.2039315,10.9190437 44.1164633,10.5782687 44.4912496,10.0638812 C44.6910995,10.1506875 44.9220914,10.2065875 45.1530832,10.2065875 C45.8463295,10.1754125 46.4206949,9.58066875 46.3646395,8.89266875 C46.2774421,8.2791125 45.7028059,7.764725 44.984646,7.78945" id="Fill-5"></path>
                            <path d="M57.7051746,12.5304688 C57.9361664,12.0160813 58.5419445,11.7621125 59.4288124,11.7621125 C59.772186,11.7621125 60.1781142,11.7930188 60.6403687,11.8736438 C61.1026232,11.96045 61.4771387,11.985175 61.6455759,11.985175 C62.0764176,11.985175 62.420062,11.7868375 62.738522,11.4707875 C63.0569821,11.1547375 63.2007765,10.7827875 63.2007765,10.299575 C63.2007765,8.874125 61.7019021,8.15521875 58.8295334,8.15521875 C57.1871354,8.15521875 55.8946101,8.35355625 54.9451876,8.7811375 C53.9960359,9.18399375 53.3339315,9.84081875 52.959416,10.7518813 C52.5534878,11.63795 52.3847798,12.8962375 52.3847798,14.4332188 L52.3847798,15.9204813 L51.2046362,15.9204813 C49.5373246,15.9204813 48.7002838,16.4907688 48.6691419,17.7178813 C48.6691419,18.2322688 48.8689918,18.691025 49.2437781,19.000625 C49.6497064,19.3414 50.2243426,19.5150125 50.967416,19.5150125 L52.3474095,19.5150125 L52.3474095,32.6536625 C52.3474095,33.6512625 52.5786721,34.3948938 53.0406558,34.90955 C53.5026395,35.4239375 54.1084176,35.6779063 54.7954356,35.6779063 C55.5696509,35.6779063 56.175429,35.3927625 56.6376835,34.90955 C57.099938,34.3642563 57.3309299,33.6268063 57.3309299,32.6536625 L57.3309299,19.5150125 L58.5424861,19.5150125 C59.4044405,19.5150125 60.097416,19.4282063 60.6157259,19.1989625 C61.1340359,18.9697188 61.3650277,18.4553313 61.3650277,17.6558 C61.3650277,16.5404875 60.415876,15.945475 58.5173018,15.945475 L57.3057455,15.945475 L57.3057455,14.7742625 C57.3303883,13.8193938 57.4430408,13.0757625 57.7051746,12.5304688" id="Fill-6"></path>
                            <path d="M76.2646786,18.2755375 C76.2646786,17.420375 75.7463687,16.732375 74.7658042,16.2179875 C73.7852398,15.7036 72.7800326,15.4493625 71.7184992,15.4493625 C70.6569657,15.4493625 69.8451093,15.7345062 69.2141468,16.2179875 C68.5834551,16.732375 67.9465351,17.5007312 67.3718989,18.5047812 C67.3407569,17.5071812 67.140907,16.7073812 66.7972626,16.2179875 C66.3913344,15.7036 65.816969,15.4493625 64.9861566,15.4493625 C63.3751713,15.4493625 62.5695432,16.5649437 62.5695432,18.789925 L62.5695432,32.5856687 C62.5695432,33.5835375 62.8005351,34.3269 63.2627896,34.8415562 C63.6936313,35.3559437 64.3305514,35.6099125 65.0175693,35.6099125 C65.7045873,35.6099125 66.3415073,35.3806687 66.8286754,34.8662812 C67.2909299,34.3518937 67.5219217,33.6079937 67.5219217,32.6103937 L67.5219217,28.4952937 C67.5219217,27.0077625 67.6093899,25.72475 67.6343034,24.6403437 C67.7466852,23.5806625 67.9216215,22.7005062 68.1837553,21.956875 C68.4710734,21.1885187 68.814447,20.6429562 69.2767015,20.24655 C69.7386852,19.8436937 70.3444633,19.6762625 71.0878075,19.6762625 C71.6061175,19.6762625 72.2118956,19.7880625 72.9300555,20.0173062 C73.6482153,20.2468187 74.0541436,20.35835 74.2539935,20.35835 C74.7723034,20.35835 75.2031452,20.1600125 75.6342577,19.7880625 C76.0648287,19.3602125 76.2646786,18.9014562 76.2646786,18.2755375" id="Fill-7"></path>
                            <path d="M93.5313866,26.3012187 C94.2806884,25.9604437 94.624062,25.130275 94.624062,23.9028937 C94.624062,22.533075 94.2804176,21.219425 93.5563002,19.9302312 C92.8630538,18.6163125 91.8329331,17.5628125 90.4215269,16.732375 C89.0412626,15.9019375 87.3742219,15.4740875 85.4133638,15.4740875 C83.8895759,15.4740875 82.5095824,15.7036 81.2980261,16.1620875 C80.0864698,16.6208437 79.0249364,17.3333 78.2193083,18.2196375 C77.3825383,19.105975 76.7204339,20.1903812 76.2895922,21.4486687 C75.8587504,22.7066875 75.6277586,24.0453312 75.6277586,25.5325937 C75.6277586,28.6436437 76.5208548,31.0731437 78.2756346,32.90145 C80.0304144,34.730025 82.5344959,35.6160937 85.7567374,35.6160937 C87.1678728,35.6160937 88.3732007,35.4177562 89.465876,35.0708 C90.5588222,34.730025 91.4516476,34.2403625 92.1698075,33.70125 C92.8879674,33.1559562 93.43769,32.5856687 93.7807928,31.9906562 C94.1244372,31.4206375 94.3302447,30.8753437 94.3302447,30.4474937 C94.3302447,29.9331062 94.186721,29.561425 93.868261,29.2762812 C93.549801,28.9911375 93.1186884,28.8487 92.6003785,28.8487 C92.1383948,28.8487 91.7636085,28.9352375 91.5077031,29.16475 C90.8770114,29.7100437 90.383615,30.1626187 89.9839152,30.5345687 C89.5779869,30.8756125 89.1471452,31.1913937 88.6913899,31.5074437 C88.2356346,31.8234937 87.7422382,32.0218312 87.2550701,32.1642687 C86.7367602,32.2758 86.1873083,32.3626062 85.6126721,32.3626062 C84.7509886,32.3626062 83.9456313,32.1330937 83.1960587,31.7057812 C82.5028124,31.2779312 81.8721207,30.621375 81.441279,29.765675 C81.0104372,28.8796062 80.7794454,27.9064625 80.7794454,26.766425 L90.5336378,26.766425 C91.807478,26.7847 92.812956,26.5863625 93.5313866,26.3012187 L93.5313866,26.3012187 Z M80.7233899,23.9835187 C80.9232398,22.328825 81.3852235,21.0396312 82.1597096,20.1844687 C82.9341958,19.3293062 83.9708157,18.901725 85.2072855,18.901725 C86.5312235,18.901725 87.5927569,19.3293062 88.3732007,20.1844687 C89.147416,21.0399 89.6408124,22.2670125 89.7531941,23.9835187 L80.7233899,23.9835187 L80.7233899,23.9835187 Z" id="Fill-8"></path>
                            <path d="M114.220186,26.3012187 C114.969488,25.9604437 115.312861,25.130275 115.312861,23.9028937 C115.312861,22.533075 114.969217,21.219425 114.2451,19.9302312 C113.551853,18.6163125 112.521732,17.5628125 111.110326,16.732375 C109.730062,15.9019375 108.06275,15.4740875 106.101892,15.4740875 C104.578375,15.4740875 103.198111,15.7036 101.986825,16.1620875 C100.775269,16.6208437 99.7137357,17.3333 98.9081077,18.2196375 C98.0713377,19.105975 97.4095041,20.1903812 96.9786623,21.4486687 C96.5475498,22.7066875 96.3168287,24.0453312 96.3168287,25.5325937 C96.3168287,28.6436437 97.2096542,31.0731437 98.9644339,32.90145 C100.718943,34.730025 103.223566,35.6160937 106.445537,35.6160937 C107.856943,35.6160937 109.062,35.4177562 110.154946,35.0708 C111.247622,34.730025 112.140718,34.2403625 112.858878,33.70125 C113.552124,33.1559562 114.126489,32.5856687 114.469863,31.9906562 C114.875791,31.4206375 115.019315,30.8753437 115.019315,30.4474937 C115.019315,29.9331062 114.875791,29.561425 114.557331,29.2762812 C114.2386,28.9911375 113.807759,28.8487 113.289449,28.8487 C112.827465,28.8487 112.452679,28.9352375 112.196773,29.16475 C111.566082,29.7100437 111.072685,30.1626187 110.672985,30.5345687 C110.267057,30.8756125 109.836215,31.1913937 109.38046,31.5074437 C108.924705,31.8234937 108.431038,32.0218312 107.94414,32.1642687 C107.42583,32.2758 106.876378,32.3626062 106.301742,32.3626062 C105.439788,32.3626062 104.634431,32.1330937 103.885129,31.7057812 C103.191612,31.2779312 102.56092,30.621375 102.130349,29.765675 C101.699507,28.8796062 101.468515,27.9064625 101.468515,26.766425 L111.254121,26.766425 C112.584016,26.7847 113.620636,26.5863625 114.220186,26.3012187 L114.220186,26.3012187 Z M101.505886,23.9835187 C101.649409,22.328825 102.167719,21.0396312 102.942206,20.1844687 C103.716421,19.3293062 104.753312,18.901725 105.989511,18.901725 C107.313719,18.901725 108.375253,19.3293062 109.155697,20.1844687 C109.929912,21.0399 110.423308,22.2670125 110.53569,23.9835187 L101.505886,23.9835187 L101.505886,23.9835187 Z" id="Fill-9"></path>
                            <path d="M132.810561,16.7014687 C131.518036,15.9331125 130.10663,15.5302562 128.582842,15.5302562 C127.290316,15.5302562 126.166228,15.8154 125.129608,16.3606937 C124.092989,16.9059875 123.143837,17.7302437 122.194414,18.8767312 L122.194414,18.3064437 C122.194414,17.420375 121.963423,16.7073812 121.445113,16.2241687 C121.014,15.7097812 120.439635,15.4805375 119.721475,15.4805375 C119.003586,15.4805375 118.453863,15.7097812 118.054163,16.1685375 C117.623321,16.627025 117.423471,17.33975 117.423471,18.2508125 L117.423471,39.6443875 C117.423471,40.7040687 117.567266,41.5036 117.885726,42.0986125 C118.204186,42.6686312 118.834878,42.9540437 119.759116,42.9540437 C121.370101,42.9540437 122.144858,41.8693687 122.144858,39.7005562 L122.144858,32.2384437 C123.037684,33.354025 123.955964,34.17855 124.936258,34.75475 C125.916551,35.3247687 127.121879,35.6099125 128.533015,35.6099125 C129.713429,35.6099125 130.837517,35.3806687 131.874137,34.9221812 C132.879615,34.463425 133.803853,33.8066 134.521742,32.9511687 C135.295958,32.0651 135.902007,31.0113312 136.332848,29.7224062 C136.795103,28.4393937 136.994682,27.0386687 136.994682,25.5266812 C136.994682,23.4691312 136.588754,21.6717312 135.870865,20.159475 C135.146206,18.6474875 134.109586,17.4760062 132.810561,16.7014687 L132.810561,16.7014687 Z M131.34337,28.9290562 C130.937442,29.871025 130.362806,30.58375 129.676059,31.0734125 C128.982812,31.5319 128.177184,31.7614125 127.371556,31.7614125 C125.991563,31.7614125 124.836333,31.2161187 123.887181,30.1317125 C122.937759,29.0473062 122.475775,27.53505 122.475775,25.5640375 C122.475775,23.4817625 122.937759,21.9076937 123.887181,20.8230187 C124.836333,19.7383437 125.985334,19.19305 127.371556,19.19305 C128.264653,19.19305 129.038868,19.4222937 129.757299,19.9366812 C130.475188,20.4510687 131.049824,21.1947 131.42461,22.1057625 C131.830538,23.0477312 131.998976,24.1633125 131.998976,25.4772312 C132.005204,26.8406 131.805354,27.9809062 131.34337,28.9290562 L131.34337,28.9290562 Z" id="Fill-10"></path>
                            <path d="M142.02153,15.5299875 C141.272228,15.5299875 140.697592,15.7595 140.210424,16.2736188 C139.779582,16.7880063 139.548591,17.5319063 139.548591,18.4986 L139.548591,32.7216563 C139.548591,33.6638938 139.74844,34.43225 140.210424,34.9466375 C140.672679,35.461025 141.278186,35.7149938 142.02153,35.7149938 C142.714777,35.7149938 143.345468,35.42985 143.832636,34.9466375 C144.294891,34.43225 144.526153,33.68835 144.526153,32.6904813 L144.526153,18.3558938 C144.526153,17.469825 144.294891,16.7568313 143.832636,16.2983438 C143.345468,15.7595 142.771103,15.5299875 142.02153,15.5299875" id="Fill-11"></path>
                            <path d="M143.776581,8.9606625 C143.258271,8.53308125 142.708819,8.33474375 142.052943,8.33474375 C141.397338,8.33474375 140.785331,8.5639875 140.298434,9.02274375 C139.780124,9.4815 139.548861,10.082425 139.548861,10.7642437 C139.548861,11.5328687 139.780124,12.1337937 140.298434,12.5616437 C140.760418,12.989225 141.366196,13.1875625 142.052943,13.1875625 C142.714777,13.1875625 143.320825,12.9583187 143.776581,12.5307375 C144.294891,12.1031562 144.526153,11.5331375 144.526153,10.7333375 C144.525883,9.9647125 144.294891,9.39469375 143.776581,8.9606625" id="Fill-12"></path>
                            <path d="M165.476816,32.1828125 C165.333292,31.8667625 165.045974,31.4144563 164.640046,30.8132625 L159.51923,22.8184875 L162.167106,20.4198938 C163.5471,19.2175063 164.208933,18.2508125 164.208933,17.5071813 C164.208933,16.9368938 164.009354,16.4225063 163.578241,16.01965 C163.1474,15.6167938 162.62909,15.4493625 162.023582,15.4493625 C161.505272,15.4493625 161.043018,15.5608938 160.699374,15.8522188 C160.293445,16.1373625 159.806548,16.59585 159.088388,17.33975 L153.505589,23.19635 L153.505589,11.191825 C153.505589,10.1939563 153.30601,9.394425 152.843755,8.90503125 C152.381772,8.42155 151.775993,8.13640625 151.001507,8.13640625 C150.164737,8.13640625 149.590101,8.42155 149.159259,8.9918375 C148.728418,9.562125 148.528568,10.4172875 148.528568,11.507875 L148.528568,32.6415688 C148.528568,33.6391688 148.75983,34.3828 149.190401,34.8974563 C149.620972,35.4121125 150.195879,35.6658125 151.001507,35.6658125 C151.663341,35.6658125 152.26939,35.3806688 152.756287,34.8974563 C153.274597,34.3830688 153.505589,33.6391688 153.505589,32.6727438 L153.505589,28.7309875 L156.20952,26.21495 L160.643318,33.4101938 C161.19277,34.2653563 161.648796,34.8356438 161.935843,35.151425 C162.254303,35.4924688 162.710059,35.6658125 163.34725,35.6658125 C164.040496,35.6658125 164.639775,35.4363 165.070617,34.9778125 C165.5326,34.5190563 165.73245,33.8934063 165.73245,33.1186 C165.701579,32.7837375 165.62061,32.4985938 165.476816,32.1828125" id="Fill-13"></path>
                        </g>
                    </g>
                </g>
            </g>
        </g>
    </g>
</svg>